[
{
    "id":1,
    "name":"Metal Floor",
    "desc":"Standard common metal floor",
    "type":"floor",
    "maptex":1
},
{
    "id":2,
    "name":"Steel Floor",
    "desc":"Standard steel floor is stronger than metal floor",
    "type":"floor",
    "maptex":0
},
{
    "id":3,
    "name":"Metal Wall",
    "desc":"Just a standard metal wall",
    "type":"wall",
    "maptex":2
}






]